user500,1,"[1, 4, 2, 5, 3]"
stevie123,1,"[5, 9, 3, 6, 7]"
shea350,1,"[9, 3, 8, 6, 7]"
biglad77,1,"[5, 1, 3, 7, 9, 8, 6]"
shea351,1,"[5, 9, 3, 4, 7]"
user4500,1,"[5, 7, 1, 3, 9]"
MrkTst1,3,"[1, 5, 9, 3, 7, 8, 4]"
default,3,"[1, 6, 9, 5, 7, 2, 4]"
sheac350,3,"[3, 6, 7, 5, 4, 2, 1]"
tommy22,3,"[1, 5, 9, 6, 4, 2, 7]"
felix1,3,"[1, 5, 2, 6, 3]"
rick39,2,"[1, 5, 9, 7, 3, 2, 6]"
colt45,3,"[7, 5, 3, 1, 9, 8, 2, 6, 4]"
easy99,2,"[1, 5, 9, 3, 7, 8, 2, 4, 6]"
lol,3,"[5, 9, 8, 2, 4, 6, 3, 7, 1]"
STU1234567,3,"[5, 7, 9, 1, 4, 6, 2, 8, 3]"
STU1234567,2,"[5, 7, 9, 1, 4, 6, 2, 8, 3]"
alan_rm,3,"[7, 5, 3, 2, 8, 9, 1, 4, 6]"
user5789,3,"[5, 7, 1, 9, 8, 2, 3, 4, 6]"
guy123,1,"[5, 6, 1, 2, 9]"
